Custom Analyses in R • huntfishapp
…
Step 2: Perform analysis

After we are setup to load the data, we can start to design our analysis. Several analysis functions are provided. For example, we can use the countCustomers function to count the number of individual within a specified group (‘See Also’ section of help file lists other analysis functions ?countCustomers). The countCustomers function has two inputs: (1) the permit data (df) and (2) a list of grouping variables (groupVars). Here we specify that we wish to count customers for groups defined by gender, item type, and item year.

# Pass data through analysis function
permitsSummary <- 
  permits %>% 
  countCustomers(c("gender", "itemType", "itemYear"))

# Preview results
permitsSummary
#> # A tibble: 36 x 4
#>    gender itemType itemYear customers
#>    <fct>  <fct>    <fct>        <int>
#>  1 Female Deer     2010           113
#>  2 Female Deer     2011           120
#>  3 Female Deer     2012           117
#>  4 Female Deer     2013           114
#>  5 Female Deer     2014           122
#>  6 Female Deer     2015           118
#>  7 Female Deer     2016           127
#>  8 Female Deer     2017           114
#>  9 Female Deer     2018           111
#> 10 Female Fish     2010           328
#> # ... with 26 more rows
…
