Load and filter data — filterData • fishhuntunl
…
price: Price of item including relevant fees.

    Examples

# Demo data: All items for male customers age 0-17 in Lancaster county
filterData(
  dataSource = "csv",
  activeFilters = list(
    gender = "Male",
    county = "lancaster",
    ageGroup = "0-17"
  )
)
#> # A tibble: 208 x 18
#>    itemUID issueDate  itemResidency duration durationValue residency state
#>      <int> <date>     <chr>         <chr>            <dbl> <chr>     <chr>
#>  1   42350 2017-11-11 T             Season               1 T         NE   
#>  2   39266 2017-04-17 T             Season               1 T         NE   
#>  3   43961 2018-04-09 T             Season               1 T         NE   
#>  4    3854 2010-09-27 T             Season               1 T         NE   
#>  5    3855 2010-09-27 T             Season               1 T         NE   
#>  6    7340 2011-05-09 T             Annual               1 T         NE   
#>  7    8729 2011-08-15 T             Annual               1 T         NE   
#>  8    8730 2011-08-15 T             Season               1 T         NE   
#>  9    9294 2011-09-28 T             Season               1 T         NE   
#> 10   11102 2011-12-30 T             Season               1 T         NE   
#> # … with 198 more rows, and 11 more variables: itemType <chr>, itemYear <int>,
#> #   price <dbl>, birthYear <dbl>, gender <chr>, county <chr>,
#> #   customerUID <int>, age <dbl>, ageGroup <chr>, month <dbl>, year <dbl>
…
